"","V1","V2","V3"
"1",0.0260071079863935,0.0150576482511353,0.049342073476573
"2",0.0290762782229852,0.0144599975992319,0.0665201831959663
"3",0.0262977297383136,0.0127624469646373,0.0629402082984269
"4",0.023849511353362,0.00920045974053789,0.0664431301812781
"5",0.0278788026818652,0.00730305233150786,0.0757089314733766
"6",0.107497814206141,0.0123449671566493,0.329632982193094
"7",0.027894444062403,0.0149903415472901,0.0596129953544169
"8",0.0309346601942872,0.0176683401090369,0.0719766183338251
"9",0.0319530641721477,0.0115750195117031,0.099501741976464
"10",0.0300036975763749,0.0116075604360482,0.093883446019931
"11",0.0298144549143252,0.00918383497003017,0.0966608951183986
"12",0.0922710779720421,0.0181865057778561,0.374843282185427
"13",0.0368333304182759,0.0215635320650372,0.0599860795512446
"14",0.0370077743839974,0.0204166602428015,0.0752318594880243
"15",0.0437360030947913,0.0197147954893248,0.110870684222353
"16",0.0407940886025647,0.0151374361360665,0.137956507886359
"17",0.0445341315240294,0.00905005378144911,0.141830357322137
"18",0.110288587607412,0.0101163137871917,0.359147646987524
"19",0.0247576751829497,0.0119760762096259,0.0581378779356819
"20",0.0330323927171804,0.0166629352440922,0.0824566701768119
"21",0.043031586671281,0.0176253264861353,0.0959770893399143
"22",0.0378757886505647,0.0127340230100906,0.130298191140202
"23",0.0375311798659677,0.00956008546566666,0.148167997115636
"24",0.0930684964987789,0.0120877727979181,0.399084762934378
"25",0.0259060109950647,0.0146080991114398,0.0591722099500893
"26",0.0344173871389989,0.0161269607149316,0.0711927145225209
"27",0.0616727888069616,0.0252716223705845,0.163131053546761
"28",0.0574318951751318,0.0233224472652612,0.178864598407433
"29",0.0620164959002863,0.0146072450794884,0.18627205070295
"30",0.116542534618742,0.0179149404629947,0.381736062383569
"31",0.0294270121229819,0.0172347763503151,0.0630921547533924
"32",0.0376738200722496,0.0211328916922587,0.0915786260230233
"33",0.0948258003774788,0.0490319101031098,0.275582383006765
"34",0.11231249490251,0.0484306586165736,0.399509604140242
"35",0.125949106376177,0.0332783243248005,0.343118651642988
"36",0.140750857750245,0.0203100771693178,0.575496048034375
