"","V1","V2","V3"
"1",0.0141599877727445,0.0104201859453756,0.0219424854511368
"2",0.0204616166150619,0.0134697505249705,0.0356191083926871
"3",0.0262766126056349,0.0112365878784247,0.0459734649609171
"4",0.0398549472008523,0.012444692802814,0.0905065049884119
"5",0.0152593898405505,0.0109615859734599,0.0249284627767303
"6",0.0237472922460777,0.0135775264164078,0.0447151334193779
"7",0.0281901211911891,0.0146027230626194,0.0581258429090413
"8",0.0363703036657033,0.014610775170857,0.0845458340253969
"9",0.0175911656406951,0.0115738455757846,0.0281068585029889
"10",0.0287571859927168,0.0176085178214649,0.0575555286938243
"11",0.0393820602568618,0.0190989770470777,0.081533899134366
"12",0.0443513495473592,0.0206330942651506,0.124359375187638
"13",0.00470276420326094,0.00226916778633904,0.00882298990204661
"14",0.0158469432898385,0.00917116241790349,0.0239823293761098
"15",0.0379609551936347,0.0192765479840399,0.0826493216309013
"16",0.0455671871199852,0.019656585939712,0.123777154427945
"17",0.00553981248524381,0.0031797237119195,0.0104702642910875
"18",0.0188694042863927,0.0116277167626374,0.031515641132012
"19",0.0461557988358976,0.0239241930934792,0.112289905895403
"20",0.0623665130154344,0.0307666605108551,0.164236649839803
"21",0.00783716579270942,0.00430543483949829,0.0144243026373044
"22",0.0254683802035041,0.0128073675198619,0.0513298237788781
"23",0.065236833356113,0.0356506801507533,0.145475787999987
"24",0.104083195902144,0.0375790612052539,0.255927390893052
