"","median","Q2.5","Q97.5","model","wup","PointNames","iteri","sizeCI"
"1",0.0199493988182806,0.00995743537735681,0.0413013426996786,"Cond-Ex",1,0.05,"0.25_0.25",0.0313439073223218
"2",0.0289242719181344,0.00902488439517144,0.0481501303242529,"JT-KDE",1,0.05,"0.25_0.25",0.0391252459290814
"3",0.0128876433474808,0.00366730198003603,0.0350685194910568,"Gumcop",1,0.05,"0.25_0.25",0.0314012175110208
"4",0.0323643070731346,0.0219738076673319,0.0493822595163604,"Normalcop",1,0.05,"0.25_0.25",0.0274084518490284
"5",0.0374481129408263,0.0269221506438814,0.0536116494901819,"FGMcop",1,0.05,"0.25_0.25",0.0266894988463006
"6",0.0148495550293811,0.00509417215679865,0.0391813172204447,"GalambosCop",1,0.05,"0.25_0.25",0.0340871450636461
"7",0.0218921244651347,0.0102398535512315,0.0451105910797939,"Cond-Ex",2,0.1,"0.25_0.25",0.0348707375285624
"8",0.0361722033353397,0.015022704844096,0.0604571337748874,"JT-KDE",2,0.1,"0.25_0.25",0.0454344289307914
"9",0.0137911787376856,0.00451882208566592,0.0351348366963041,"Gumcop",2,0.1,"0.25_0.25",0.0306160146106381
"10",0.0527925444565333,0.0394119272950254,0.069814831460908,"Normalcop",2,0.1,"0.25_0.25",0.0304029041658826
"11",0.063393445154314,0.0520944711651295,0.0800323495834473,"FGMcop",2,0.1,"0.25_0.25",0.0279378784183178
"12",0.0154799510825224,0.00552489899657327,0.0398471059672453,"GalambosCop",2,0.1,"0.25_0.25",0.0343222069706721
"13",0.0201428422683225,0.00623802522468242,0.0576356298325102,"Cond-Ex",3,0.3,"0.25_0.25",0.0513976046078277
"14",0.0372336102010423,0.0110811094625201,0.0799130534110051,"JT-KDE",3,0.3,"0.25_0.25",0.068831943948485
"15",0.0138575716223825,0.00331062480924313,0.0398353663730526,"Gumcop",3,0.3,"0.25_0.25",0.0365247415638095
"16",0.0857374098183299,0.0693856417197094,0.108814323885234,"Normalcop",3,0.3,"0.25_0.25",0.0394286821655246
"17",0.135046512907729,0.122438805260329,0.151789122812231,"FGMcop",3,0.3,"0.25_0.25",0.0293503175519028
"18",0.0140085913561088,0.0040817911742599,0.0375038979909215,"GalambosCop",3,0.3,"0.25_0.25",0.0334221068166616
"19",0.019314923619002,0.00445780267102203,0.0527631177961626,"Cond-Ex",4,0.5,"0.25_0.25",0.0483053151251406
"20",0.0238902708123474,0.00440344391775755,0.0701918948298891,"JT-KDE",4,0.5,"0.25_0.25",0.0657884509121316
"21",0.0163968442368947,0.00118817736414191,0.0492718240504342,"Gumcop",4,0.5,"0.25_0.25",0.0480836466862923
"22",0.0797344699831501,0.0540946146849757,0.110966434809729,"Normalcop",4,0.5,"0.25_0.25",0.0568718201247533
"23",0.197573345410458,0.181212577978143,0.215386463551006,"FGMcop",4,0.5,"0.25_0.25",0.034173885572863
"24",0.0157772094276341,0.00129882391821665,0.0496420356925708,"GalambosCop",4,0.5,"0.25_0.25",0.0483432117743541
"25",0.018588455082221,0.00442610133381622,0.066613625739213,"Cond-Ex",5,0.7,"0.25_0.25",0.0621875244053968
"26",0.0217223616851668,0.00270510037503156,0.0732179287833799,"JT-KDE",5,0.7,"0.25_0.25",0.0705128284083483
"27",0.0153070854896483,0.00308987700653151,0.0577602096000249,"Gumcop",5,0.7,"0.25_0.25",0.0546703325934934
"28",0.0572361798033375,0.0172887191043451,0.0886476705292146,"Normalcop",5,0.7,"0.25_0.25",0.0713589514248696
"29",0.26015012350949,0.246711524409157,0.274287137509275,"FGMcop",5,0.7,"0.25_0.25",0.0275756131001172
"30",0.0153030137408554,0.00313180348069848,0.0577490894893752,"GalambosCop",5,0.7,"0.25_0.25",0.0546172860086767
"31",0.0907873315069224,0.0140828727935334,0.252667257142839,"Cond-Ex",6,0.9,"0.25_0.25",0.238584384349306
"32",0.0815249292464546,0.0125309847805926,0.205855340992584,"JT-KDE",6,0.9,"0.25_0.25",0.193324356211991
"33",0.0796355921675954,0.00690744223783718,0.203351680468723,"Gumcop",6,0.9,"0.25_0.25",0.196444238230886
"34",0.0945115995722187,0.00903780512343993,0.23253834834452,"Normalcop",6,0.9,"0.25_0.25",0.22350054322108
"35",1.04914127034059,0.993120296814543,1.10769335115804,"FGMcop",6,0.9,"0.25_0.25",0.114573054343496
"36",0.0796637586649193,0.00691424802414974,0.203344712211546,"GalambosCop",6,0.9,"0.25_0.25",0.196430464187397
"37",0.02042541437063,0.00973723845842951,0.0494690253528237,"Cond-Ex",1,0.05,"0.25_0.5",0.0397317868943942
"38",0.0258492358605277,0.0103917298821496,0.0614728772055626,"JT-KDE",1,0.05,"0.25_0.5",0.051081147323413
"39",0.0149072855933198,0.00373543588686576,0.0350362050529785,"Gumcop",1,0.05,"0.25_0.5",0.0313007691661127
"40",0.0383219057780512,0.025425634949825,0.0550272885998173,"Normalcop",1,0.05,"0.25_0.5",0.0296016536499923
"41",0.0444798844186338,0.0319077719590516,0.0627229096517656,"FGMcop",1,0.05,"0.25_0.5",0.030815137692714
"42",0.0153034032537686,0.00659998878543898,0.0394771420529071,"GalambosCop",1,0.05,"0.25_0.5",0.0328771532674681
"43",0.0252936870865874,0.0108245156499297,0.0467063911364709,"Cond-Ex",2,0.1,"0.25_0.5",0.0358818754865412
"44",0.0361145688749054,0.0159826406571767,0.0693914567986374,"JT-KDE",2,0.1,"0.25_0.5",0.0534088161414607
"45",0.0159241583311613,0.00474543621333709,0.0466328627455466,"Gumcop",2,0.1,"0.25_0.5",0.0418874265322095
"46",0.0606466665036257,0.0473593042376853,0.0833252162451327,"Normalcop",2,0.1,"0.25_0.5",0.0359659120074474
"47",0.0734449494887597,0.0609553981002668,0.094476334000192,"FGMcop",2,0.1,"0.25_0.5",0.0335209358999252
"48",0.017691288063115,0.00709408108944672,0.0534974966077492,"GalambosCop",2,0.1,"0.25_0.5",0.0464034155183025
"49",0.0227933043255227,0.00898312742421618,0.0692145357779561,"Cond-Ex",3,0.3,"0.25_0.5",0.0602314083537399
"50",0.03788736535391,0.0102015636688615,0.0890819716664128,"JT-KDE",3,0.3,"0.25_0.5",0.0788804079975514
"51",0.0195401772095717,0.00459735220513123,0.0478442618699388,"Gumcop",3,0.3,"0.25_0.5",0.0432469096648075
"52",0.0993512928134656,0.0808493269657378,0.122864153935801,"Normalcop",3,0.3,"0.25_0.5",0.0420148269700633
"53",0.157440005161628,0.140827370343487,0.173343042401959,"FGMcop",3,0.3,"0.25_0.5",0.0325156720584711
"54",0.0202244069889318,0.00578445463058264,0.0500810414372558,"GalambosCop",3,0.3,"0.25_0.5",0.0442965868066731
"55",0.0299354024215412,0.00499825730884238,0.0698313307477538,"Cond-Ex",4,0.5,"0.25_0.5",0.0648330734389114
"56",0.0343610151545673,0.00707933531502348,0.0865636871013673,"JT-KDE",4,0.5,"0.25_0.5",0.0794843517863439
"57",0.0200592505773972,0.00322067349508238,0.0618358765377888,"Gumcop",4,0.5,"0.25_0.5",0.0586152030427064
"58",0.0955652861656828,0.0635942744001228,0.133696162269888,"Normalcop",4,0.5,"0.25_0.5",0.070101887869765
"59",0.230951660231923,0.212509199114092,0.252069590868774,"FGMcop",4,0.5,"0.25_0.5",0.039560391754682
"60",0.0199203200081538,0.00345016852572149,0.0624024838849075,"GalambosCop",4,0.5,"0.25_0.5",0.058952315359186
"61",0.0244644139002224,0.00308757835692989,0.0722368074698005,"Cond-Ex",5,0.7,"0.25_0.5",0.0691492291128706
"62",0.0256331346650228,0.00379463573177071,0.0861379064597691,"JT-KDE",5,0.7,"0.25_0.5",0.0823432707279984
"63",0.0224890411262455,0.00310969939455097,0.0648030888860986,"Gumcop",5,0.7,"0.25_0.5",0.0616933894915477
"64",0.0653608198487268,0.0300558604166945,0.109625890697864,"Normalcop",5,0.7,"0.25_0.5",0.0795700302811698
"65",0.293466271117923,0.278219365096402,0.312036544184449,"FGMcop",5,0.7,"0.25_0.5",0.0338171790880461
"66",0.0226248896038519,0.00309307352041415,0.0649731275028853,"GalambosCop",5,0.7,"0.25_0.5",0.0618800539824712
"67",0.079689243436671,0.00940964503683278,0.302010405599382,"Cond-Ex",6,0.9,"0.25_0.5",0.292600760562549
"68",0.0747634355750724,0.0127376022265193,0.31436657890224,"JT-KDE",6,0.9,"0.25_0.5",0.30162897667572
"69",0.0872004620603802,0.0124438689352826,0.33698945652189,"Gumcop",6,0.9,"0.25_0.5",0.324545587586608
"70",0.0952564281853119,0.0125299967743503,0.357558396257388,"Normalcop",6,0.9,"0.25_0.5",0.345028399483037
"71",0.984914684800279,0.934522313659148,1.03740149329162,"FGMcop",6,0.9,"0.25_0.5",0.102879179632471
"72",0.0832531029245723,0.0138424328063077,0.320836323451976,"GalambosCop",6,0.9,"0.25_0.5",0.306993890645668
"73",0.0288620660390725,0.0120247357705979,0.0494331477292436,"Cond-Ex",1,0.05,"0.5_0.5",0.0374084119586458
"74",0.0375130926454007,0.0120173081301812,0.0637151816453288,"JT-KDE",1,0.05,"0.5_0.5",0.0516978735151476
"75",0.0193995656626983,0.00658109023539942,0.0445321735183655,"Gumcop",1,0.05,"0.5_0.5",0.037951083282966
"76",0.0475957749021309,0.0335781396758489,0.0649169649776898,"Normalcop",1,0.05,"0.5_0.5",0.031338825301841
"77",0.0535712415239269,0.0406215745868916,0.0714464258484552,"FGMcop",1,0.05,"0.5_0.5",0.0308248512615636
"78",0.0223398685676334,0.0086848892959611,0.0555193915985581,"GalambosCop",1,0.05,"0.5_0.5",0.046834502302597
"79",0.0319696994001374,0.0157192788366343,0.0732060037568076,"Cond-Ex",2,0.1,"0.5_0.5",0.0574867249201734
"80",0.0472767561304532,0.018866028917908,0.0900922733277494,"JT-KDE",2,0.1,"0.5_0.5",0.0712262444098413
"81",0.0218331899436954,0.00619929204649349,0.0541701708323133,"Gumcop",2,0.1,"0.5_0.5",0.0479708787858198
"82",0.0748256293652738,0.0598769886845315,0.103704522537447,"Normalcop",2,0.1,"0.5_0.5",0.0438275338529153
"83",0.0914119372632273,0.076035633475464,0.118152787268392,"FGMcop",2,0.1,"0.5_0.5",0.0421171537929275
"84",0.0230517144507755,0.00993887149164184,0.0578451069808103,"GalambosCop",2,0.1,"0.5_0.5",0.0479062354891685
"85",0.032377944171341,0.0100943924666282,0.0806843355125692,"Cond-Ex",3,0.3,"0.5_0.5",0.070589943045941
"86",0.0546722063619624,0.0182211234223788,0.10164219575916,"JT-KDE",3,0.3,"0.5_0.5",0.0834210723367816
"87",0.0241128744070412,0.0053107414078377,0.0710963796650361,"Gumcop",3,0.3,"0.5_0.5",0.0657856382571984
"88",0.129660581216638,0.105575286793685,0.160306138364239,"Normalcop",3,0.3,"0.5_0.5",0.0547308515705544
"89",0.198562972151738,0.180680913494671,0.218829602002107,"FGMcop",3,0.3,"0.5_0.5",0.0381486885074357
"90",0.0237221342862426,0.00714098706561048,0.0720823892390236,"GalambosCop",3,0.3,"0.5_0.5",0.0649414021734132
"91",0.0287036547075515,0.00937351004345109,0.101165762755297,"Cond-Ex",4,0.5,"0.5_0.5",0.0917922527118458
"92",0.0367213172562973,0.00870681506035395,0.115884200436357,"JT-KDE",4,0.5,"0.5_0.5",0.107177385376003
"93",0.0217227236622416,0.00420807353729674,0.0829305034986383,"Gumcop",4,0.5,"0.5_0.5",0.0787224299613415
"94",0.119688443647237,0.0836096040065665,0.165080638966461,"Normalcop",4,0.5,"0.5_0.5",0.0814710349598947
"95",0.285473043624882,0.264161129110745,0.304083894702221,"FGMcop",4,0.5,"0.5_0.5",0.0399227655914762
"96",0.0219180907927909,0.00423505864722207,0.0829351465254337,"GalambosCop",4,0.5,"0.5_0.5",0.0787000878782116
"97",0.0302244574138882,0.00629046559248434,0.0987239622314136,"Cond-Ex",5,0.7,"0.5_0.5",0.0924334966389293
"98",0.0350020388107329,0.00514239483875889,0.0993694860919902,"JT-KDE",5,0.7,"0.5_0.5",0.0942270912532313
"99",0.0282269253970868,0.00410081197457565,0.0965349670858902,"Gumcop",5,0.7,"0.5_0.5",0.0924341551113145
"100",0.0914062422096267,0.0411387893306644,0.149909306606904,"Normalcop",5,0.7,"0.5_0.5",0.10877051727624
"101",0.353920066040833,0.335554827610721,0.375364000780706,"FGMcop",5,0.7,"0.5_0.5",0.0398091731699843
"102",0.0280983807224849,0.00411530567730263,0.0964748366983701,"GalambosCop",5,0.7,"0.5_0.5",0.0923595310210675
"103",0.105837224689168,0.00982274407284683,0.284150673577051,"Cond-Ex",6,0.9,"0.5_0.5",0.274327929504204
"104",0.103400299747733,0.0173671880356439,0.288561156328997,"JT-KDE",6,0.9,"0.5_0.5",0.271193968293354
"105",0.131225569008349,0.015115815590464,0.293677175416959,"Gumcop",6,0.9,"0.5_0.5",0.278561359826495
"106",0.146985625006814,0.0136633261770487,0.301731176256059,"Normalcop",6,0.9,"0.5_0.5",0.288067850079011
"107",1.013935334959,0.961077113802072,1.06663926698559,"FGMcop",6,0.9,"0.5_0.5",0.105562153183521
"108",0.134862597467645,0.0158597688727927,0.303098990867857,"GalambosCop",6,0.9,"0.5_0.5",0.287239221995064
"109",0.0192289104712332,0.0104067427301431,0.0403210012376344,"Cond-Ex",1,0.05,"0.25_1.5",0.0299142585074914
"110",0.0239440216049068,0.00589057966737572,0.0446375862112606,"JT-KDE",1,0.05,"0.25_1.5",0.0387470065438849
"111",0.0149167305258832,0.0026328828128109,0.0323176752749192,"Gumcop",1,0.05,"0.25_1.5",0.0296847924621083
"112",0.0301510701323545,0.0207901162377934,0.0456534974610959,"Normalcop",1,0.05,"0.25_1.5",0.0248633812233025
"113",0.0352940175937887,0.0261244789266671,0.0516926847724112,"FGMcop",1,0.05,"0.25_1.5",0.0255682058457441
"114",0.0155904560853949,0.00609616953326418,0.0389235348494567,"GalambosCop",1,0.05,"0.25_1.5",0.0328273653161925
"115",0.0280220754184602,0.013779247323067,0.0622709276733748,"Cond-Ex",2,0.1,"0.25_1.5",0.0484916803503078
"116",0.0367672678166263,0.0124030286358348,0.0771380487198066,"JT-KDE",2,0.1,"0.25_1.5",0.0647350200839718
"117",0.0169100451952578,0.00454710636747709,0.0497295347419492,"Gumcop",2,0.1,"0.25_1.5",0.0451824283744722
"118",0.0613623882856616,0.045596709037799,0.08904559261918,"Normalcop",2,0.1,"0.25_1.5",0.043448883581381
"119",0.0738110370889196,0.0596167438143071,0.100772839011613,"FGMcop",2,0.1,"0.25_1.5",0.0411560951973057
"120",0.0199101529974868,0.00867066110970606,0.0511921715522946,"GalambosCop",2,0.1,"0.25_1.5",0.0425215104425886
"121",0.0354983487454125,0.0119545630920676,0.0959073812750085,"Cond-Ex",3,0.3,"0.25_1.5",0.0839528181829409
"122",0.0520959116787879,0.012124520331406,0.12475539602916,"JT-KDE",3,0.3,"0.25_1.5",0.112630875697754
"123",0.0202148483797509,0.00410426298825711,0.0640991995890853,"Gumcop",3,0.3,"0.25_1.5",0.0599949366008282
"124",0.146652941790085,0.112606302730161,0.182455668004337,"Normalcop",3,0.3,"0.25_1.5",0.0698493652741761
"125",0.227657472872965,0.197317823129046,0.259121148947536,"FGMcop",3,0.3,"0.25_1.5",0.0618033258184892
"126",0.0194785741712004,0.00662369338771966,0.0682586933456725,"GalambosCop",3,0.3,"0.25_1.5",0.0616349999579528
"127",0.0329337395583922,0.00966849366587369,0.10104139245335,"Cond-Ex",4,0.5,"0.25_1.5",0.0913728987874765
"128",0.0343984021363586,0.00720887167468681,0.117885373328917,"JT-KDE",4,0.5,"0.25_1.5",0.11067650165423
"129",0.0230745315794619,0.00625107359258917,0.0843378378336229,"Gumcop",4,0.5,"0.25_1.5",0.0780867642410338
"130",0.132100753327288,0.0840838091996325,0.188276583718485,"Normalcop",4,0.5,"0.25_1.5",0.104192774518853
"131",0.329112781223809,0.301525368174562,0.368694666325341,"FGMcop",4,0.5,"0.25_1.5",0.0671692981507782
"132",0.0225961947868168,0.00640857402425027,0.0825743602171367,"GalambosCop",4,0.5,"0.25_1.5",0.0761657861928865
"133",0.033637576784844,0.00583614556782793,0.134043333878654,"Cond-Ex",5,0.7,"0.25_1.5",0.128207188310826
"134",0.0343010685555138,0.00895693574054458,0.122776981261494,"JT-KDE",5,0.7,"0.25_1.5",0.113820045520949
"135",0.0255777741044484,0.00501278703120895,0.104150796242438,"Gumcop",5,0.7,"0.25_1.5",0.0991380092112291
"136",0.0854048143177935,0.0270768652985391,0.17141172275745,"Normalcop",5,0.7,"0.25_1.5",0.144334857458911
"137",0.413628149091393,0.379439626842027,0.452233720011012,"FGMcop",5,0.7,"0.25_1.5",0.0727940931689847
"138",0.0255457500779715,0.00510589504055268,0.10380582030214,"GalambosCop",5,0.7,"0.25_1.5",0.0986999252615874
"139",0.0543173895459653,0.00565140322280516,0.244345591085423,"Cond-Ex",6,0.9,"0.25_1.5",0.238694187862617
"140",0.0515610594876664,0.00572502380121863,0.189936836193466,"JT-KDE",6,0.9,"0.25_1.5",0.184211812392247
"141",0.0475203519126758,0.0059339249988674,0.210297515735021,"Gumcop",6,0.9,"0.25_1.5",0.204363590736154
"142",0.0557813634148499,0.00685128522639753,0.227126011484222,"Normalcop",6,0.9,"0.25_1.5",0.220274726257825
"143",0.774817349651358,0.726449930325609,0.817998705255072,"FGMcop",6,0.9,"0.25_1.5",0.0915487749294629
"144",0.0472190958168712,0.00551688556321562,0.211610048591873,"GalambosCop",6,0.9,"0.25_1.5",0.206093163028657
"145",0.0207881464622997,0.00993720294348045,0.0519831420166611,"Cond-Ex",1,0.05,"0.5_1.5",0.0420459390731806
"146",0.0272140546744406,0.00889055087618933,0.0480660299045646,"JT-KDE",1,0.05,"0.5_1.5",0.0391754790283752
"147",0.0161964259077773,0.00505562858745517,0.0360550280614602,"Gumcop",1,0.05,"0.5_1.5",0.0309993994740051
"148",0.035081631720426,0.0263026950193843,0.0479849008342888,"Normalcop",1,0.05,"0.5_1.5",0.0216822058149045
"149",0.0404991736761039,0.0315467938104089,0.0532031601699538,"FGMcop",1,0.05,"0.5_1.5",0.0216563663595449
"150",0.0176301050865722,0.00728803491528211,0.0429701944232366,"GalambosCop",1,0.05,"0.5_1.5",0.0356821595079545
"151",0.0312258748157858,0.016743550825707,0.0609535039335334,"Cond-Ex",2,0.1,"0.5_1.5",0.0442099531078264
"152",0.0441546329001085,0.0154087992991979,0.0716525562106968,"JT-KDE",2,0.1,"0.5_1.5",0.0562437569114989
"153",0.0206176764046035,0.0060371981930869,0.0403107008968576,"Gumcop",2,0.1,"0.5_1.5",0.0342735027037707
"154",0.0683765908801789,0.0542280587867822,0.0826798678353042,"Normalcop",2,0.1,"0.5_1.5",0.028451809048522
"155",0.0815125358858343,0.0683260438662712,0.0962128837890352,"FGMcop",2,0.1,"0.5_1.5",0.027886839922764
"156",0.0227458468944636,0.00888215604630445,0.0481474602880876,"GalambosCop",2,0.1,"0.5_1.5",0.0392653042417832
"157",0.0405222007555642,0.0205604246036019,0.143792167885661,"Cond-Ex",3,0.3,"0.5_1.5",0.123231743282059
"158",0.0715812235151327,0.0173823372826347,0.164820521358233,"JT-KDE",3,0.3,"0.5_1.5",0.147438184075598
"159",0.033935267383637,0.00529108405910019,0.0972467667242842,"Gumcop",3,0.3,"0.5_1.5",0.091955682665184
"160",0.188073558708867,0.160208500356938,0.235671349931509,"Normalcop",3,0.3,"0.5_1.5",0.0754628495745709
"161",0.280412775353447,0.260482731962874,0.314529826207351,"FGMcop",3,0.3,"0.5_1.5",0.0540470942444776
"162",0.0344922475329229,0.0104297420203816,0.0914567858926764,"GalambosCop",3,0.3,"0.5_1.5",0.0810270438722948
"163",0.0492769303381658,0.0107778762094371,0.146330178208864,"Cond-Ex",4,0.5,"0.5_1.5",0.135552301999427
"164",0.0432230306280803,0.0101105250146051,0.155290497339536,"JT-KDE",4,0.5,"0.5_1.5",0.145179972324931
"165",0.033884295667817,0.00714397608662148,0.106619475081945,"Gumcop",4,0.5,"0.5_1.5",0.0994754989953236
"166",0.187302712271835,0.130648356062517,0.235512696317589,"Normalcop",4,0.5,"0.5_1.5",0.104864340255072
"167",0.417328694550889,0.389612119252709,0.439130791413789,"FGMcop",4,0.5,"0.5_1.5",0.0495186721610799
"168",0.0345637855606668,0.00866346765737222,0.108181169451285,"GalambosCop",4,0.5,"0.5_1.5",0.0995177017939127
"169",0.0559776372367307,0.00992673105268949,0.156251956116111,"Cond-Ex",5,0.7,"0.5_1.5",0.146325225063421
"170",0.0553043109568791,0.0116981784378964,0.160401295695201,"JT-KDE",5,0.7,"0.5_1.5",0.148703117257305
"171",0.0486716200338824,0.00726724918299622,0.140572868377949,"Gumcop",5,0.7,"0.5_1.5",0.133305619194953
"172",0.126827444348572,0.0383500195116117,0.216006481328714,"Normalcop",5,0.7,"0.5_1.5",0.177656461817102
"173",0.504157171015767,0.470976693787367,0.530843700326807,"FGMcop",5,0.7,"0.5_1.5",0.05986700653944
"174",0.0486399462186594,0.00736392721759671,0.140859985104451,"GalambosCop",5,0.7,"0.5_1.5",0.133496057886854
"175",0.0807163871514843,0.0116177384397792,0.323875852183249,"Cond-Ex",6,0.9,"0.5_1.5",0.31225811374347
"176",0.0710054509412578,0.00830907249945012,0.294617463642905,"JT-KDE",6,0.9,"0.5_1.5",0.286308391143454
"177",0.069288312910594,0.011785680002844,0.28935465841488,"Gumcop",6,0.9,"0.5_1.5",0.277568978412036
"178",0.0907570931318687,0.0136991560536786,0.293721071842632,"Normalcop",6,0.9,"0.5_1.5",0.280021915788954
"179",0.927240893719665,0.887726221547255,0.963730017484641,"FGMcop",6,0.9,"0.5_1.5",0.0760037959373859
"180",0.0697864042953433,0.0121141063108107,0.289982036749532,"GalambosCop",6,0.9,"0.5_1.5",0.277867930438722
"181",0.0224570096907551,0.0112366629937667,0.0450646367566419,"Cond-Ex",1,0.05,"1.5_1.5",0.0338279737628752
"182",0.0326936427348166,0.0103698914176291,0.0527075288519345,"JT-KDE",1,0.05,"1.5_1.5",0.0423376374343053
"183",0.0180747995313949,0.00377668933751762,0.0403366093850926,"Gumcop",1,0.05,"1.5_1.5",0.036559920047575
"184",0.0384735586116984,0.0307431660590436,0.0496587751263586,"Normalcop",1,0.05,"1.5_1.5",0.018915609067315
"185",0.0439790445737319,0.0376463394693859,0.053193645518885,"FGMcop",1,0.05,"1.5_1.5",0.0155473060494991
"186",0.0203634656602397,0.00634766389929645,0.0484028920651955,"GalambosCop",1,0.05,"1.5_1.5",0.0420552281658991
"187",0.0324493136140457,0.0151520173446666,0.0677309771895846,"Cond-Ex",2,0.1,"1.5_1.5",0.052578959844918
"188",0.0462546688028974,0.0217897166533901,0.0726976933035797,"JT-KDE",2,0.1,"1.5_1.5",0.0509079766501896
"189",0.019625123918995,0.00445367205918994,0.0501120378491848,"Gumcop",2,0.1,"1.5_1.5",0.0456583657899949
"190",0.0691601818379992,0.0608503209751007,0.0845142426251186,"Normalcop",2,0.1,"1.5_1.5",0.0236639216500179
"191",0.0799968448632487,0.0732785662628332,0.0925832148284307,"FGMcop",2,0.1,"1.5_1.5",0.0193046485655974
"192",0.0233258307119632,0.00980010829989618,0.061087704497569,"GalambosCop",2,0.1,"1.5_1.5",0.0512875961976728
"193",0.080110512978796,0.0394021803616117,0.198198961646147,"Cond-Ex",3,0.3,"1.5_1.5",0.158796781284536
"194",0.11074509842014,0.0287970876588229,0.216486199304513,"JT-KDE",3,0.3,"1.5_1.5",0.18768911164569
"195",0.052178973426437,0.0147452938253967,0.168364878317838,"Gumcop",3,0.3,"1.5_1.5",0.153619584492441
"196",0.256438359826765,0.224186010558599,0.300969122124886,"Normalcop",3,0.3,"1.5_1.5",0.0767831115662871
"197",0.353949256153475,0.332800891835301,0.383213076759863,"FGMcop",3,0.3,"1.5_1.5",0.0504121849245628
"198",0.0524376357562477,0.0181064736915731,0.176668848095156,"GalambosCop",3,0.3,"1.5_1.5",0.158562374403583
"199",0.0886861123479571,0.0280171399570461,0.244674933352946,"Cond-Ex",4,0.5,"1.5_1.5",0.216657793395899
"200",0.0997068258145933,0.022529349520937,0.255008498286564,"JT-KDE",4,0.5,"1.5_1.5",0.232479148765627
"201",0.073471816717091,0.0163140612530904,0.221090636664716,"Gumcop",4,0.5,"1.5_1.5",0.204776575411625
"202",0.294419863854292,0.219343623384928,0.363580090721092,"Normalcop",4,0.5,"1.5_1.5",0.144236467336164
"203",0.553626924194701,0.52861816694138,0.573623396884368,"FGMcop",4,0.5,"1.5_1.5",0.0450052299429878
"204",0.0761947035682346,0.0163278782297606,0.223859153329268,"GalambosCop",4,0.5,"1.5_1.5",0.207531275099508
"205",0.0827192422765949,0.0155512572195781,0.265431419578397,"Cond-Ex",5,0.7,"1.5_1.5",0.249880162358819
"206",0.10872541813617,0.0177390626466828,0.331829356467658,"JT-KDE",5,0.7,"1.5_1.5",0.314090293820975
"207",0.0865148850427814,0.00788934413129328,0.285096842125277,"Gumcop",5,0.7,"1.5_1.5",0.277207497993984
"208",0.200420955620003,0.0871659361949925,0.328148806686269,"Normalcop",5,0.7,"1.5_1.5",0.240982870491276
"209",0.663513507393684,0.648631121067878,0.679997847727547,"FGMcop",5,0.7,"1.5_1.5",0.031366726659669
"210",0.0865507557073419,0.00831282108938667,0.286378336907082,"GalambosCop",5,0.7,"1.5_1.5",0.278065515817696
"211",0.102003252914164,0.0156108739735275,0.440525120166251,"Cond-Ex",6,0.9,"1.5_1.5",0.424914246192723
"212",0.118826551706134,0.016653517644696,0.672502404912508,"JT-KDE",6,0.9,"1.5_1.5",0.655848887267812
"213",0.0883520072299192,0.01333089564209,0.568930426495731,"Gumcop",6,0.9,"1.5_1.5",0.555599530853641
"214",0.114186659036196,0.0179021489146176,0.384468856958812,"Normalcop",6,0.9,"1.5_1.5",0.366566708044194
"215",0.916943333697943,0.897724357290207,0.935809239900113,"FGMcop",6,0.9,"1.5_1.5",0.0380848826099053
"216",0.087903971557719,0.0137663267616162,0.56914929408112,"GalambosCop",6,0.9,"1.5_1.5",0.555382967319504
